Visualization-project-01
…
oscar_data_1 <- pivot_longer(oscar_data_1,
             `Picture`:`OriScreen`,
             names_to = "Award_category",
             values_to = "Result") %>%
  filter(Result == "Yes") %>%
  rename(Award = Award_category) %>%
  select(-Result)

Another aspect that can be analyzed is looking at previous wins of this data-sets winners. Had they won any Oscar award before the 2000-2017 ceremonies? To answer this question another set of data was gathered from IMDb and Wikipedia websites. This new data-set, named previous_win expresses if the winner already had an Oscar award or not.

previous_win <- read_csv ('previous_awards.csv')
previous_win

## # A tibble: 136 x 4
##     year movie            Award     Pre_award
##    <dbl> <chr>            <chr>     <chr>    
##  1  2000 Traffic          Director  no       
##  2  2000 Traffic          S_Actor   no       
##  3  2000 Traffic          AdaScreen no       
##  4  2000 Pollock          S_Actress no       
##  5  2000 Erin Brockovich  Actress   no       
##  6  2000 Gladiator        Picture   no       
##  7  2000 Gladiator        Actor     no       
##  8  2000 Almost Famous    OriScreen no       
##  9  2001 A Beautiful Mind Picture   no       
## 10  2001 A Beautiful Mind Director  no       
## # ... with 126 more rows
…
Unnecessary columns will be removed and the data-set for this phase is called oscar_data_2.

oscar_data_2 <- oscar_data[, -c(17:116)] %>%
  select(
    -movie_id,
    -synopsis,
    -release_date,
    -user_reviews,
    -critic_reviews,
    -popularity,
    -votes)
oscar_data_2

## # A tibble: 1,183 x 12
##     year movie certificate duration genre  rate metascore  gross awards_wins
##    <dbl> <chr> <chr>          <dbl> <chr> <dbl>     <dbl>  <dbl>       <dbl>
##  1  2000 Traf~ R                147 Crim~  7.60        86 1.24e8          18
##  2  2000 Shad~ R                 92 Dram~  6.90        71 8.28e6           3
##  3  2000 Crou~ PG-13            120 Acti~  7.90        93 1.28e8          28
##  4  2000 Snat~ R                102 Come~  8.30        55 3.01e7           0
##  5  2000 The ~ R                111 Dram~  6.70        62 1.20e7           0
##  6  2000 Choc~ PG-13            121 Dram~  7.30        64 7.13e7           2
##  7  2000 Pitc~ R                109 Horr~  7.10        49 3.92e7           0
##  8  2000 The ~ R                119 Adve~  6.60        43 3.98e7           0
##  9  2000 Boil~ R                120 Crim~  7           63 1.69e7           0
## 10  2000 Wond~ R                107 Come~  7.40        73 1.94e7           9
## # ... with 1,173 more rows, and 3 more variables: release_date.month <dbl>,
## #   `release_date.day-of-month` <dbl>, `release_date.day-of-week` <dbl>

The oscar_data_2 data-set has 12 columns and 1183 rows, describing all movies that were nominated for Oscar awards between 2000-2017. Just like phase 1, some changes must be done in order to have tidy data.

oscar_data_2 %>%
filter(is.na(gross)) 

## # A tibble: 24 x 12
##     year movie certificate duration genre  rate metascore gross awards_wins
##    <dbl> <chr> <chr>          <dbl> <chr> <dbl>     <dbl> <dbl>       <dbl>
##  1  2001 Laga~ PG               224 Adve~  8.20        84    NA           0
##  2  2001 Zus ~ Unrated          106 Come~  6.40        50    NA           0
##  3  2002 Ken ~ Not Rated         93 Drama  5.90        NA    NA           0
##  4  2002 The ~ <NA>             129 Dram~  8.10        82    NA           0
##  5  2003 The ~ R                 99 Drama  3.5         NA    NA           0
##  6  2004 Yest~ R                 90 Drama  7.80        NA    NA           0
##  7  2007 Deat~ Not Rated        113 Thri~  7.10        NA    NA           0
##  8  2008 Reva~ Not Rated        121 Crim~  7.60        84    NA           0
##  9  2008 Angu~ PG-13            100 Come~  6.40        NA    NA           0
## 10  2009 Hach~ G                 93 Dram~  8.10        NA    NA           0
## # ... with 14 more rows, and 3 more variables: release_date.month <dbl>,
## #   `release_date.day-of-month` <dbl>, `release_date.day-of-week` <dbl>

Since The grosses of 24 movies are missing from this data-set, another data-set called missing_gross will be uploaded to presents the information missing in oscar_data_2. In order to collect the missing_grosss data, each movies Box Office Mojo website page was visited.

missing_gross = read_csv ('missing_gross.csv')
missing_gross

## # A tibble: 23 x 2
##    movie                               gross
##    <chr>                               <dbl>
##  1 Lagaan: Once Upon a Time in India  909043
##  2 Ken Park                               NA
##  3 Zus & zo                            49468
##  4 The Twilight Samurai               559765
##  5 The Room                           549602
##  6 Unthinkable                            NA
##  7 Angus, Thongs and Perfect Snogging     NA
##  8 Death Proof                            NA
##  9 Hachi: A Dog's Tale                    NA
## 10 Revanche                           258388
## # ... with 13 more rows
…
Just like previous phases, phase 3 begins with altering the original data-set. The changed data-set is named oscar_data_3.

#Removing columns that are not useful for this phase
oscar_data_3 <- oscar_data[, -c(17:35,37:39,41:119)] %>%
  select(
    -synopsis,
    -movie_id,
    -votes,
    -release_date,
    -user_reviews,
    -critic_reviews,
    -popularity)
oscar_data_3

## # A tibble: 1,183 x 11
##     year movie certificate duration genre  rate metascore  gross awards_wins
##    <dbl> <chr> <chr>          <dbl> <chr> <dbl>     <dbl>  <dbl>       <dbl>
##  1  2000 Traf~ R                147 Crim~  7.60        86 1.24e8          18
##  2  2000 Shad~ R                 92 Dram~  6.90        71 8.28e6           3
##  3  2000 Crou~ PG-13            120 Acti~  7.90        93 1.28e8          28
##  4  2000 Snat~ R                102 Come~  8.30        55 3.01e7           0
##  5  2000 The ~ R                111 Dram~  6.70        62 1.20e7           0
##  6  2000 Choc~ PG-13            121 Dram~  7.30        64 7.13e7           2
##  7  2000 Pitc~ R                109 Horr~  7.10        49 3.92e7           0
##  8  2000 The ~ R                119 Adve~  6.60        43 3.98e7           0
##  9  2000 Boil~ R                120 Crim~  7           63 1.69e7           0
## 10  2000 Wond~ R                107 Come~  7.40        73 1.94e7           9
## # ... with 1,173 more rows, and 2 more variables: Golden_Globes_won <dbl>,
## #   BAFTA_won <dbl>
…
